 <BigDFT> log of the run will be written in logfile: ./log.yaml
 <BigDFT> Logfile existing, renamed into: ./logfiles/log.15:00:31.722.yaml
 {"parameters": { "electronic_structure_method": "pseudopotential", "pw_cutoff": 60.0, "gk_cutoff": 30.0, "xc_functionals": [ "XC_GGA_X_PBE", "XC_GGA_C_PBE" ] } }                                                                                               
SIRIUS 7.2.6, git hash: 513e0685d37b4a815112285492bc99db25a9b9b8
 {"parameters": { "electronic_structure_method": "pseudopotential", "pw_cutoff": 60.0, "gk_cutoff": 30.0, "xc_functionals": [ "XC_GGA_X_PBE", "XC_GGA_C_PBE" ] } }                                                                                               
MPI rank placement
------------------
rank:   0, comm_band_rank:   0, comm_k_rank:   0, hostname: gre056447, mpi processor name: gre056447

SIRIUS version : 7.2.6
git hash       : 513e0685d37b4a815112285492bc99db25a9b9b8
git branch     : tags/v7.2.6
build time     : 2021-09-28 16:52:17
start time     : Wed,  5 Jan 2022 15:00:31

number of MPI ranks           : 1
MPI grid                      : 1 1 1
maximum number of OMP threads : 8
number of MPI ranks per node  : 1
page size (Kb)                : 4
number of pages               : 4015014
available memory (GB)         : 15

FFT context for density and potential
=====================================
  comm size                             : 1
  plane wave cutoff                     : 60.000000
  grid size                             : 100 100 100   total : 1000000
  grid limits                           : -49 50   -49 50   -49 50
  number of G-vectors within the cutoff : 227932
  local number of G-vectors             : 227932
  number of G-shells                    : 1903

FFT context for coarse grid
=====================================
  comm size                             : 1
  plane wave cutoff                     : 60.000000
  grid size                             : 100 100 100   total : 1000000
  grid limits                           : -49 50   -49 50   -49 50
  number of G-vectors within the cutoff : 227932
  local number of G-vectors             : 227932
  number of G-shells                    : 1903

number of local G-vector blocks: 1

Unit cell
--------------------------------------------------------------------------------
lattice vectors
  a1 :       5.0000000000       0.0000000000       0.0000000000 
  a2 :       0.0000000000       5.0000000000       0.0000000000 
  a3 :       0.0000000000       0.0000000000       5.0000000000 
reciprocal lattice vectors
  b1 :       1.2566370614       0.0000000000       0.0000000000 
  b2 :       0.0000000000       1.2566370614       0.0000000000 
  b3 :       0.0000000000       0.0000000000       1.2566370614 

unit cell volume :       125.00000000 [a.u.^3]
1/sqrt(omega)    :         0.08944272
MT volume        : 0.000000 ( 0.00%)
IT volume        : 125.000000 (100.00%)

number of atom types : 1
type id : 0   symbol : Si   mt_radius : 100.578918, num_atoms: 1
total number of atoms : 1
number of symmetry classes : 1
number of PAW atoms : 0

atom id              position                    vector_field        type id    class id
----------------------------------------------------------------------------------------
     0      0.500000 0.500000 0.500000   0.000000 0.000000 0.000000        0           0

class id : 0   atom id : 0 

atom id              position (Cartesian, a.u.)
----------------------------------------------------------------------------------------
     0          2.500000000000     2.500000000000     2.500000000000

class id : 0   atom id : 0 

minimum bond length:       5.000000000000

number of pseudo wave-functions: 0

space group number   : 221
international symbol : Pm-3m
Hall symbol          : -P 4 2 3
space group transformation matrix : 
    1.000000     0.000000     0.000000 
    0.000000     1.000000     0.000000 
    0.000000     0.000000     1.000000 
space group origin shift : 
    0.000000     0.000000     0.000000
number of space group operations  : 48
number of magnetic group operations : 48
metric tensor error:     0.000000000000
rotation matrix error:     0.000000000000
symmetry operations  : 
isym : 0
R :   1   0   0 
      0   1   0 
      0   0   1 
Rc:   1.0000   0.0000   0.0000 
      0.0000   1.0000   0.0000 
      0.0000   0.0000   1.0000 
t :   0.0000   0.0000   0.0000 
S :   1.0000   0.0000   0.0000 
      0.0000   1.0000   0.0000 
      0.0000   0.0000   1.0000 
proper: 1

isym : 1
R :  -1   0   0 
      0  -1   0 
      0   0  -1 
Rc:  -1.0000   0.0000   0.0000 
      0.0000  -1.0000   0.0000 
      0.0000   0.0000  -1.0000 
t :   0.0000   0.0000   0.0000 
S :   1.0000   0.0000   0.0000 
      0.0000   1.0000   0.0000 
      0.0000   0.0000   1.0000 
proper: -1

isym : 2
R :   0  -1   0 
      1   0   0 
      0   0   1 
Rc:   0.0000  -1.0000   0.0000 
      1.0000   0.0000   0.0000 
      0.0000   0.0000   1.0000 
t :   0.0000   0.0000   0.0000 
S :   1.0000   0.0000   0.0000 
      0.0000   1.0000   0.0000 
      0.0000   0.0000   1.0000 
proper: 1

isym : 3
R :   0   1   0 
     -1   0   0 
      0   0  -1 
Rc:   0.0000   1.0000   0.0000 
     -1.0000   0.0000   0.0000 
      0.0000   0.0000  -1.0000 
t :   0.0000   0.0000   0.0000 
S :   1.0000   0.0000   0.0000 
      0.0000   1.0000   0.0000 
      0.0000   0.0000   1.0000 
proper: -1

isym : 4
R :  -1   0   0 
      0  -1   0 
      0   0   1 
Rc:  -1.0000   0.0000   0.0000 
      0.0000  -1.0000   0.0000 
      0.0000   0.0000   1.0000 
t :   0.0000   0.0000   0.0000 
S :   1.0000   0.0000   0.0000 
      0.0000   1.0000   0.0000 
      0.0000   0.0000   1.0000 
proper: 1

isym : 5
R :   1   0   0 
      0   1   0 
      0   0  -1 
Rc:   1.0000   0.0000   0.0000 
      0.0000   1.0000   0.0000 
      0.0000   0.0000  -1.0000 
t :   0.0000   0.0000   0.0000 
S :   1.0000   0.0000   0.0000 
      0.0000   1.0000   0.0000 
      0.0000   0.0000   1.0000 
proper: -1

isym : 6
R :   0   1   0 
     -1   0   0 
      0   0   1 
Rc:   0.0000   1.0000   0.0000 
     -1.0000   0.0000   0.0000 
      0.0000   0.0000   1.0000 
t :   0.0000   0.0000   0.0000 
S :   1.0000   0.0000   0.0000 
      0.0000   1.0000   0.0000 
      0.0000   0.0000   1.0000 
proper: 1

isym : 7
R :   0  -1   0 
      1   0   0 
      0   0  -1 
Rc:   0.0000  -1.0000   0.0000 
      1.0000   0.0000   0.0000 
      0.0000   0.0000  -1.0000 
t :   0.0000   0.0000   0.0000 
S :   1.0000   0.0000   0.0000 
      0.0000   1.0000   0.0000 
      0.0000   0.0000   1.0000 
proper: -1

isym : 8
R :   1   0   0 
      0  -1   0 
      0   0  -1 
Rc:   1.0000   0.0000   0.0000 
      0.0000  -1.0000   0.0000 
      0.0000   0.0000  -1.0000 
t :   0.0000   0.0000   0.0000 
S :   1.0000   0.0000   0.0000 
      0.0000   1.0000   0.0000 
      0.0000   0.0000   1.0000 
proper: 1

isym : 9
R :  -1   0   0 
      0   1   0 
      0   0   1 
Rc:  -1.0000   0.0000   0.0000 
      0.0000   1.0000   0.0000 
      0.0000   0.0000   1.0000 
t :   0.0000   0.0000   0.0000 
S :   1.0000   0.0000   0.0000 
      0.0000   1.0000   0.0000 
      0.0000   0.0000   1.0000 
proper: -1

isym : 10
R :   0  -1   0 
     -1   0   0 
      0   0  -1 
Rc:   0.0000  -1.0000   0.0000 
     -1.0000   0.0000   0.0000 
      0.0000   0.0000  -1.0000 
t :   0.0000   0.0000   0.0000 
S :   1.0000   0.0000   0.0000 
      0.0000   1.0000   0.0000 
      0.0000   0.0000   1.0000 
proper: 1

isym : 11
R :   0   1   0 
      1   0   0 
      0   0   1 
Rc:   0.0000   1.0000   0.0000 
      1.0000   0.0000   0.0000 
      0.0000   0.0000   1.0000 
t :   0.0000   0.0000   0.0000 
S :   1.0000   0.0000   0.0000 
      0.0000   1.0000   0.0000 
      0.0000   0.0000   1.0000 
proper: -1

isym : 12
R :  -1   0   0 
      0   1   0 
      0   0  -1 
Rc:  -1.0000   0.0000   0.0000 
      0.0000   1.0000   0.0000 
      0.0000   0.0000  -1.0000 
t :   0.0000   0.0000   0.0000 
S :   1.0000   0.0000   0.0000 
      0.0000   1.0000   0.0000 
      0.0000   0.0000   1.0000 
proper: 1

isym : 13
R :   1   0   0 
      0  -1   0 
      0   0   1 
Rc:   1.0000   0.0000   0.0000 
      0.0000  -1.0000   0.0000 
      0.0000   0.0000   1.0000 
t :   0.0000   0.0000   0.0000 
S :   1.0000   0.0000   0.0000 
      0.0000   1.0000   0.0000 
      0.0000   0.0000   1.0000 
proper: -1

isym : 14
R :   0   1   0 
      1   0   0 
      0   0  -1 
Rc:   0.0000   1.0000   0.0000 
      1.0000   0.0000   0.0000 
      0.0000   0.0000  -1.0000 
t :   0.0000   0.0000   0.0000 
S :   1.0000   0.0000   0.0000 
      0.0000   1.0000   0.0000 
      0.0000   0.0000   1.0000 
proper: 1

isym : 15
R :   0  -1   0 
     -1   0   0 
      0   0   1 
Rc:   0.0000  -1.0000   0.0000 
     -1.0000   0.0000   0.0000 
      0.0000   0.0000   1.0000 
t :   0.0000   0.0000   0.0000 
S :   1.0000   0.0000   0.0000 
      0.0000   1.0000   0.0000 
      0.0000   0.0000   1.0000 
proper: -1

isym : 16
R :   0   0   1 
      1   0   0 
      0   1   0 
Rc:   0.0000   0.0000   1.0000 
      1.0000   0.0000   0.0000 
      0.0000   1.0000   0.0000 
t :   0.0000   0.0000   0.0000 
S :   1.0000   0.0000   0.0000 
      0.0000   1.0000   0.0000 
      0.0000   0.0000   1.0000 
proper: 1

isym : 17
R :   0   0  -1 
     -1   0   0 
      0  -1   0 
Rc:   0.0000   0.0000  -1.0000 
     -1.0000   0.0000   0.0000 
      0.0000  -1.0000   0.0000 
t :   0.0000   0.0000   0.0000 
S :   1.0000   0.0000   0.0000 
      0.0000   1.0000   0.0000 
      0.0000   0.0000   1.0000 
proper: -1

isym : 18
R :   0   0   1 
      0  -1   0 
      1   0   0 
Rc:   0.0000   0.0000   1.0000 
      0.0000  -1.0000   0.0000 
      1.0000   0.0000   0.0000 
t :   0.0000   0.0000   0.0000 
S :   1.0000   0.0000   0.0000 
      0.0000   1.0000   0.0000 
      0.0000   0.0000   1.0000 
proper: 1

isym : 19
R :   0   0  -1 
      0   1   0 
     -1   0   0 
Rc:   0.0000   0.0000  -1.0000 
      0.0000   1.0000   0.0000 
     -1.0000   0.0000   0.0000 
t :   0.0000   0.0000   0.0000 
S :   1.0000   0.0000   0.0000 
      0.0000   1.0000   0.0000 
      0.0000   0.0000   1.0000 
proper: -1

isym : 20
R :   0   0   1 
     -1   0   0 
      0  -1   0 
Rc:   0.0000   0.0000   1.0000 
     -1.0000   0.0000   0.0000 
      0.0000  -1.0000   0.0000 
t :   0.0000   0.0000   0.0000 
S :   1.0000   0.0000   0.0000 
      0.0000   1.0000   0.0000 
      0.0000   0.0000   1.0000 
proper: 1

isym : 21
R :   0   0  -1 
      1   0   0 
      0   1   0 
Rc:   0.0000   0.0000  -1.0000 
      1.0000   0.0000   0.0000 
      0.0000   1.0000   0.0000 
t :   0.0000   0.0000   0.0000 
S :   1.0000   0.0000   0.0000 
      0.0000   1.0000   0.0000 
      0.0000   0.0000   1.0000 
proper: -1

isym : 22
R :   0   0   1 
      0   1   0 
     -1   0   0 
Rc:   0.0000   0.0000   1.0000 
      0.0000   1.0000   0.0000 
     -1.0000   0.0000   0.0000 
t :   0.0000   0.0000   0.0000 
S :   1.0000   0.0000   0.0000 
      0.0000   1.0000   0.0000 
      0.0000   0.0000   1.0000 
proper: 1

isym : 23
R :   0   0  -1 
      0  -1   0 
      1   0   0 
Rc:   0.0000   0.0000  -1.0000 
      0.0000  -1.0000   0.0000 
      1.0000   0.0000   0.0000 
t :   0.0000   0.0000   0.0000 
S :   1.0000   0.0000   0.0000 
      0.0000   1.0000   0.0000 
      0.0000   0.0000   1.0000 
proper: -1

isym : 24
R :   0   0  -1 
      1   0   0 
      0  -1   0 
Rc:   0.0000   0.0000  -1.0000 
      1.0000   0.0000   0.0000 
      0.0000  -1.0000   0.0000 
t :   0.0000   0.0000   0.0000 
S :   1.0000   0.0000   0.0000 
      0.0000   1.0000   0.0000 
      0.0000   0.0000   1.0000 
proper: 1

isym : 25
R :   0   0   1 
     -1   0   0 
      0   1   0 
Rc:   0.0000   0.0000   1.0000 
     -1.0000   0.0000   0.0000 
      0.0000   1.0000   0.0000 
t :   0.0000   0.0000   0.0000 
S :   1.0000   0.0000   0.0000 
      0.0000   1.0000   0.0000 
      0.0000   0.0000   1.0000 
proper: -1

isym : 26
R :   0   0  -1 
      0  -1   0 
     -1   0   0 
Rc:   0.0000   0.0000  -1.0000 
      0.0000  -1.0000   0.0000 
     -1.0000   0.0000   0.0000 
t :   0.0000   0.0000   0.0000 
S :   1.0000   0.0000   0.0000 
      0.0000   1.0000   0.0000 
      0.0000   0.0000   1.0000 
proper: 1

isym : 27
R :   0   0   1 
      0   1   0 
      1   0   0 
Rc:   0.0000   0.0000   1.0000 
      0.0000   1.0000   0.0000 
      1.0000   0.0000   0.0000 
t :   0.0000   0.0000   0.0000 
S :   1.0000   0.0000   0.0000 
      0.0000   1.0000   0.0000 
      0.0000   0.0000   1.0000 
proper: -1

isym : 28
R :   0   0  -1 
     -1   0   0 
      0   1   0 
Rc:   0.0000   0.0000  -1.0000 
     -1.0000   0.0000   0.0000 
      0.0000   1.0000   0.0000 
t :   0.0000   0.0000   0.0000 
S :   1.0000   0.0000   0.0000 
      0.0000   1.0000   0.0000 
      0.0000   0.0000   1.0000 
proper: 1

isym : 29
R :   0   0   1 
      1   0   0 
      0  -1   0 
Rc:   0.0000   0.0000   1.0000 
      1.0000   0.0000   0.0000 
      0.0000  -1.0000   0.0000 
t :   0.0000   0.0000   0.0000 
S :   1.0000   0.0000   0.0000 
      0.0000   1.0000   0.0000 
      0.0000   0.0000   1.0000 
proper: -1

isym : 30
R :   0   0  -1 
      0   1   0 
      1   0   0 
Rc:   0.0000   0.0000  -1.0000 
      0.0000   1.0000   0.0000 
      1.0000   0.0000   0.0000 
t :   0.0000   0.0000   0.0000 
S :   1.0000   0.0000   0.0000 
      0.0000   1.0000   0.0000 
      0.0000   0.0000   1.0000 
proper: 1

isym : 31
R :   0   0   1 
      0  -1   0 
     -1   0   0 
Rc:   0.0000   0.0000   1.0000 
      0.0000  -1.0000   0.0000 
     -1.0000   0.0000   0.0000 
t :   0.0000   0.0000   0.0000 
S :   1.0000   0.0000   0.0000 
      0.0000   1.0000   0.0000 
      0.0000   0.0000   1.0000 
proper: -1

isym : 32
R :   0   1   0 
      0   0   1 
      1   0   0 
Rc:   0.0000   1.0000   0.0000 
      0.0000   0.0000   1.0000 
      1.0000   0.0000   0.0000 
t :   0.0000   0.0000   0.0000 
S :   1.0000   0.0000   0.0000 
      0.0000   1.0000   0.0000 
      0.0000   0.0000   1.0000 
proper: 1

isym : 33
R :   0  -1   0 
      0   0  -1 
     -1   0   0 
Rc:   0.0000  -1.0000   0.0000 
      0.0000   0.0000  -1.0000 
     -1.0000   0.0000   0.0000 
t :   0.0000   0.0000   0.0000 
S :   1.0000   0.0000   0.0000 
      0.0000   1.0000   0.0000 
      0.0000   0.0000   1.0000 
proper: -1

isym : 34
R :   1   0   0 
      0   0   1 
      0  -1   0 
Rc:   1.0000   0.0000   0.0000 
      0.0000   0.0000   1.0000 
      0.0000  -1.0000   0.0000 
t :   0.0000   0.0000   0.0000 
S :   1.0000   0.0000   0.0000 
      0.0000   1.0000   0.0000 
      0.0000   0.0000   1.0000 
proper: 1

isym : 35
R :  -1   0   0 
      0   0  -1 
      0   1   0 
Rc:  -1.0000   0.0000   0.0000 
      0.0000   0.0000  -1.0000 
      0.0000   1.0000   0.0000 
t :   0.0000   0.0000   0.0000 
S :   1.0000   0.0000   0.0000 
      0.0000   1.0000   0.0000 
      0.0000   0.0000   1.0000 
proper: -1

isym : 36
R :   0  -1   0 
      0   0   1 
     -1   0   0 
Rc:   0.0000  -1.0000   0.0000 
      0.0000   0.0000   1.0000 
     -1.0000   0.0000   0.0000 
t :   0.0000   0.0000   0.0000 
S :   1.0000   0.0000   0.0000 
      0.0000   1.0000   0.0000 
      0.0000   0.0000   1.0000 
proper: 1

isym : 37
R :   0   1   0 
      0   0  -1 
      1   0   0 
Rc:   0.0000   1.0000   0.0000 
      0.0000   0.0000  -1.0000 
      1.0000   0.0000   0.0000 
t :   0.0000   0.0000   0.0000 
S :   1.0000   0.0000   0.0000 
      0.0000   1.0000   0.0000 
      0.0000   0.0000   1.0000 
proper: -1

isym : 38
R :  -1   0   0 
      0   0   1 
      0   1   0 
Rc:  -1.0000   0.0000   0.0000 
      0.0000   0.0000   1.0000 
      0.0000   1.0000   0.0000 
t :   0.0000   0.0000   0.0000 
S :   1.0000   0.0000   0.0000 
      0.0000   1.0000   0.0000 
      0.0000   0.0000   1.0000 
proper: 1

isym : 39
R :   1   0   0 
      0   0  -1 
      0  -1   0 
Rc:   1.0000   0.0000   0.0000 
      0.0000   0.0000  -1.0000 
      0.0000  -1.0000   0.0000 
t :   0.0000   0.0000   0.0000 
S :   1.0000   0.0000   0.0000 
      0.0000   1.0000   0.0000 
      0.0000   0.0000   1.0000 
proper: -1

isym : 40
R :   0  -1   0 
      0   0  -1 
      1   0   0 
Rc:   0.0000  -1.0000   0.0000 
      0.0000   0.0000  -1.0000 
      1.0000   0.0000   0.0000 
t :   0.0000   0.0000   0.0000 
S :   1.0000   0.0000   0.0000 
      0.0000   1.0000   0.0000 
      0.0000   0.0000   1.0000 
proper: 1

isym : 41
R :   0   1   0 
      0   0   1 
     -1   0   0 
Rc:   0.0000   1.0000   0.0000 
      0.0000   0.0000   1.0000 
     -1.0000   0.0000   0.0000 
t :   0.0000   0.0000   0.0000 
S :   1.0000   0.0000   0.0000 
      0.0000   1.0000   0.0000 
      0.0000   0.0000   1.0000 
proper: -1

isym : 42
R :  -1   0   0 
      0   0  -1 
      0  -1   0 
Rc:  -1.0000   0.0000   0.0000 
      0.0000   0.0000  -1.0000 
      0.0000  -1.0000   0.0000 
t :   0.0000   0.0000   0.0000 
S :   1.0000   0.0000   0.0000 
      0.0000   1.0000   0.0000 
      0.0000   0.0000   1.0000 
proper: 1

isym : 43
R :   1   0   0 
      0   0   1 
      0   1   0 
Rc:   1.0000   0.0000   0.0000 
      0.0000   0.0000   1.0000 
      0.0000   1.0000   0.0000 
t :   0.0000   0.0000   0.0000 
S :   1.0000   0.0000   0.0000 
      0.0000   1.0000   0.0000 
      0.0000   0.0000   1.0000 
proper: -1

isym : 44
R :   0   1   0 
      0   0  -1 
     -1   0   0 
Rc:   0.0000   1.0000   0.0000 
      0.0000   0.0000  -1.0000 
     -1.0000   0.0000   0.0000 
t :   0.0000   0.0000   0.0000 
S :   1.0000   0.0000   0.0000 
      0.0000   1.0000   0.0000 
      0.0000   0.0000   1.0000 
proper: 1

isym : 45
R :   0  -1   0 
      0   0   1 
      1   0   0 
Rc:   0.0000  -1.0000   0.0000 
      0.0000   0.0000   1.0000 
      1.0000   0.0000   0.0000 
t :   0.0000   0.0000   0.0000 
S :   1.0000   0.0000   0.0000 
      0.0000   1.0000   0.0000 
      0.0000   0.0000   1.0000 
proper: -1

isym : 46
R :   1   0   0 
      0   0  -1 
      0   1   0 
Rc:   1.0000   0.0000   0.0000 
      0.0000   0.0000  -1.0000 
      0.0000   1.0000   0.0000 
t :   0.0000   0.0000   0.0000 
S :   1.0000   0.0000   0.0000 
      0.0000   1.0000   0.0000 
      0.0000   0.0000   1.0000 
proper: 1

isym : 47
R :  -1   0   0 
      0   0   1 
      0  -1   0 
Rc:  -1.0000   0.0000   0.0000 
      0.0000   0.0000   1.0000 
      0.0000  -1.0000   0.0000 
t :   0.0000   0.0000   0.0000 
S :   1.0000   0.0000   0.0000 
      0.0000   1.0000   0.0000 
      0.0000   0.0000   1.0000 
proper: -1


label          : Si
--------------------------------------------------------------------------------
symbol         : Si
name           : 
zn             : 4
mass           : 0.000000
mt_radius      : 100.578918
num_mt_points  : 1141
grid_origin    : 0.000065
grid_name      : external

number of core electrons    : 0.000000
number of valence electrons : 4.000000

total number of radial functions : 3
lmax of radial functions         : 1
max. number of radial functions  : 2
total number of basis functions  : 5
number of aw basis functions     : 0
number of lo basis functions     : 5
lmax of beta-projectors          : 1
number of ps wavefunctions       : 0
charge augmentation              : false
vloc is set                      : true
ps_rho_core is set               : true
ps_rho_total is set              : true
Hubbard correction               : false
spin-orbit coupling              : false

Basic information
--------------------------------------------------------------------------------
total nuclear charge               : 4
number of core electrons           : 0.000000
number of valence electrons        : 4.000000
total number of electrons          : 4.000000
extra charge                       : 0.000000
total number of aw basis functions : 0
total number of lo basis functions : 5
number of first-variational states : -1
number of bands                    : 12
number of spins                    : 1
number of magnetic dimensions      : 0
number of spinor components        : 1
number of spinors per band index   : 1
lmax_apw                           : -1
lmax_rho                           : 2
lmax_pot                           : 2
lmax_rf                            : 1
smearing type                      : gaussian
smearing width                     : 0.010000
cyclic block size                  : 8
|G+k| cutoff                       : 30.000000
symmetry                           : true
so_correction                      : false
valence relativity                 : zora
core relativity                    : Dirac
standard eigen-value solver        : LAPACK
generalized eigen-value solver     : LAPACK
processing unit                    : CPU

iterative solver                   : davidson
number of steps                    : 20
subspace size                      : 2
early restart ratio                : 0.50

spglib version: 1.16.2
HDF5 version: 1.10.5
Libxc version: 4.3.4

XC functionals
==============
1) XC_GGA_X_PBE: Perdew, Burke & Ernzerhof
J. P. Perdew, K. Burke, and M. Ernzerhof, Phys. Rev. Lett. 77, 3865 (1996) (10.1103/PhysRevLett.77.3865)
J. P. Perdew, K. Burke, and M. Ernzerhof, Phys. Rev. Lett. 78, 1396 (1997) (10.1103/PhysRevLett.78.1396)

2) XC_GGA_C_PBE: Perdew, Burke & Ernzerhof
J. P. Perdew, K. Burke, and M. Ernzerhof, Phys. Rev. Lett. 77, 3865 (1996) (10.1103/PhysRevLett.77.3865)
J. P. Perdew, K. Burke, and M. Ernzerhof, Phys. Rev. Lett. 78, 1396 (1997) (10.1103/PhysRevLett.78.1396)


memory consumption
==================
approximate number of G+k vectors        : 56993
approximate number of G vectors          : 227972
approximate number of coarse G vectors   : 227972
approximate size of wave-functions for each k-point: 10 Mb, 10 Mb/rank
approximate memory consumption of Davidson solver: 114 Mb/rank
approximate memory consumption of FFT transforms: 30 Mb/rank

total number of k-points : 1
--------------------------------------------------------------------------------
  ik                vk                    weight  num_gkvec
--------------------------------------------------------------------------------
   0     0.0000   0.0000   0.0000       1.000000      57051

=== Warning at line 177 of file /home/bigdft-suite/sirius/src/density/density.cpp ===
wrong initial charge density
  integral of the density : 4.05472030637
  target number of electrons : 4

[initialize_subspace] eval[0]=  0.6366905909486135
[initialize_subspace] eval[1]=  2.9019805566030690
[initialize_subspace] eval[2]=  6.7662515829223056
[initialize_subspace] eval[3]= 12.2684960842233242
[initialize_subspace] eval[4]= 19.3697348602640567
[initialize_subspace] eval[5]= 28.0592988000798655
[initialize_subspace] eval[6]= 38.3337783894780912
[initialize_subspace] eval[7]= 50.1842921478036814
[initialize_subspace] eval[8]= 63.8256549583401167
[initialize_subspace] eval[9]= 79.1934403244178071
[initialize_subspace] eval[10]= 95.9904629589696441
[initialize_subspace] eval[11]=119.3028364931413847
[find] 
[find] density_tol       : 1e-06
[find] energy_tol        : 1e-06
[find] initial_tolerance : 0.01
[find] num_dft_iter      : 1
[find] 
[find] +------------------------------+
[find] | SCF iteration   0 out of   1
[find] +------------------------------+
[find] 
[solve] iterative solver tolerance: 1.0000e-02
[diag_pseudo_potential_davidson] Restart = no. Locked = 0. Converged = 0. Wanted = 12. Lockable = 0.i Num ritz = 12. Expansion size = 12
[diag_pseudo_potential_davidson] Orthogonalize 12 to 12
[diag_pseudo_potential_davidson] Computing 12 pre-Ritz pairs
[diag_pseudo_potential_davidson] step: 0, current subspace size: 24, maximum subspace size: 24
[diag_pseudo_potential_davidson] Restart = yes. Locked = 0. Converged = 0. Wanted = 12. Lockable = 0.i Num ritz = 12. Expansion size = 12
[diag_pseudo_potential_davidson] subspace size limit reached
[diag_pseudo_potential_davidson] Orthogonalize 12 to 12
[diag_pseudo_potential_davidson] Computing 12 pre-Ritz pairs
[diag_pseudo_potential_davidson] step: 1, current subspace size: 24, maximum subspace size: 24
[diag_pseudo_potential_davidson] Restart = yes. Locked = 0. Converged = 0. Wanted = 12. Lockable = 0.i Num ritz = 12. Expansion size = 12
[diag_pseudo_potential_davidson] subspace size limit reached
[diag_pseudo_potential_davidson] Orthogonalize 12 to 12
[diag_pseudo_potential_davidson] Computing 12 pre-Ritz pairs
[diag_pseudo_potential_davidson] step: 2, current subspace size: 24, maximum subspace size: 24
[diag_pseudo_potential_davidson] Restart = yes. Locked = 0. Converged = 0. Wanted = 12. Lockable = 0.i Num ritz = 12. Expansion size = 12
[diag_pseudo_potential_davidson] subspace size limit reached
[diag_pseudo_potential_davidson] Orthogonalize 12 to 12
[diag_pseudo_potential_davidson] Computing 12 pre-Ritz pairs
[diag_pseudo_potential_davidson] step: 3, current subspace size: 24, maximum subspace size: 24
[diag_pseudo_potential_davidson] Restart = yes. Locked = 0. Converged = 3. Wanted = 12. Lockable = 2.i Num ritz = 12. Expansion size = 9
[diag_pseudo_potential_davidson] subspace size limit reached
[diag_pseudo_potential_davidson] Orthogonalize 9 to 12
[diag_pseudo_potential_davidson] Computing 10 pre-Ritz pairs
[diag_pseudo_potential_davidson] step: 4, current subspace size: 21, maximum subspace size: 24
[diag_pseudo_potential_davidson] Restart = yes. Locked = 2. Converged = 5. Wanted = 12. Lockable = 5.i Num ritz = 10. Expansion size = 5
[diag_pseudo_potential_davidson] subspace size limit reached
[diag_pseudo_potential_davidson] Orthogonalize 5 to 12
[diag_pseudo_potential_davidson] Computing 5 pre-Ritz pairs
[diag_pseudo_potential_davidson] step: 5, current subspace size: 17, maximum subspace size: 24
[diag_pseudo_potential_davidson] Restart = no. Locked = 7. Converged = 1. Wanted = 12. Lockable = 0.i Num ritz = 5. Expansion size = 4
[diag_pseudo_potential_davidson] Orthogonalize 4 to 17
[diag_pseudo_potential_davidson] Computing 5 pre-Ritz pairs
[diag_pseudo_potential_davidson] step: 6, current subspace size: 21, maximum subspace size: 24
[diag_pseudo_potential_davidson] Restart = yes. Locked = 7. Converged = 0. Wanted = 12. Lockable = 0.i Num ritz = 5. Expansion size = 5
[diag_pseudo_potential_davidson] subspace size limit reached
[diag_pseudo_potential_davidson] Orthogonalize 5 to 12
[diag_pseudo_potential_davidson] Computing 5 pre-Ritz pairs
[diag_pseudo_potential_davidson] step: 7, current subspace size: 17, maximum subspace size: 24
[diag_pseudo_potential_davidson] Restart = no. Locked = 7. Converged = 1. Wanted = 12. Lockable = 1.i Num ritz = 5. Expansion size = 4
[diag_pseudo_potential_davidson] Orthogonalize 4 to 17
[diag_pseudo_potential_davidson] Computing 5 pre-Ritz pairs
[diag_pseudo_potential_davidson] step: 8, current subspace size: 21, maximum subspace size: 24
[diag_pseudo_potential_davidson] Restart = yes. Locked = 7. Converged = 1. Wanted = 12. Lockable = 1.i Num ritz = 5. Expansion size = 4
[diag_pseudo_potential_davidson] subspace size limit reached
[diag_pseudo_potential_davidson] Orthogonalize 4 to 12
[diag_pseudo_potential_davidson] Computing 4 pre-Ritz pairs
[diag_pseudo_potential_davidson] step: 9, current subspace size: 16, maximum subspace size: 24
[diag_pseudo_potential_davidson] Restart = no. Locked = 8. Converged = 0. Wanted = 12. Lockable = 0.i Num ritz = 4. Expansion size = 4
[diag_pseudo_potential_davidson] Orthogonalize 4 to 16
[diag_pseudo_potential_davidson] Computing 4 pre-Ritz pairs
[diag_pseudo_potential_davidson] step: 10, current subspace size: 20, maximum subspace size: 24
[diag_pseudo_potential_davidson] Restart = no. Locked = 8. Converged = 0. Wanted = 12. Lockable = 0.i Num ritz = 4. Expansion size = 4
[diag_pseudo_potential_davidson] Orthogonalize 4 to 20
[diag_pseudo_potential_davidson] Computing 4 pre-Ritz pairs
[diag_pseudo_potential_davidson] step: 11, current subspace size: 24, maximum subspace size: 24
[diag_pseudo_potential_davidson] Restart = yes. Locked = 8. Converged = 3. Wanted = 12. Lockable = 3.i Num ritz = 4. Expansion size = 1
[diag_pseudo_potential_davidson] subspace size limit reached
[diag_pseudo_potential_davidson] Orthogonalize 1 to 12
[diag_pseudo_potential_davidson] Computing 1 pre-Ritz pairs
[diag_pseudo_potential_davidson] step: 12, current subspace size: 13, maximum subspace size: 24
[diag_pseudo_potential_davidson] Restart = no. Locked = 11. Converged = 1. Wanted = 12. Lockable = 1.i Num ritz = 1. Expansion size = 0
[diag_pseudo_potential_davidson] end of iterative diagonalization; n=0, k=13
[solve] average number of iterations:    13.000000
[solve] Lowest band energies
ik :  0,    -0.182372    0.513132    0.539356    0.775356    1.335176    1.387039    1.705968    0.522779    0.513291    0.535535
[find] 
[find] Charges and magnetic moments
[find] --------------------------------------------------------------------------------
[find] total charge          : 4.000000
[find] 
[find] Energy
[find] --------------------------------------------------------------------------------
[find] valence_eval_sum               :       0.66312345
[find] <rho|V^{XC}>                   :      -1.58359583
[find] <rho|E^{XC}>                   :      -4.33445471
[find] <mag|B^{XC}>                   :       0.00000000
[find] <rho|V^{H}>                    :       0.17593866
[find] one-electron contribution      :       2.07078063 (Ha),       4.14156126 (Ry)
[find] hartree contribution           :       0.08796933
[find] xc contribution                :      -4.33445471
[find] ewald contribution             :      -4.53967598
[find] PAW contribution               :       0.00000000
[find] smearing (-TS)                 :      -0.01324788
[find] SCF correction                 :       0.00977857
[find] Total energy                   :      -6.71885004 (Ha),     -13.43770008 (Ry)
[find] 
[find] band gap (eV)                  :       0.00433486
[find] Efermi                         :       0.51254919
[find] 
[find] iteration : 0, RMS : 5.108037556510e-03, energy difference : -6.718850038805e+00
[find] 
[find] Charges and magnetic moments
[find] --------------------------------------------------------------------------------
[find] total charge          : 4.000000
[find] 
[find] Energy
[find] --------------------------------------------------------------------------------
[find] valence_eval_sum               :       0.66312345
[find] <rho|V^{XC}>                   :      -1.58359583
[find] <rho|E^{XC}>                   :      -4.33445471
[find] <mag|B^{XC}>                   :       0.00000000
[find] <rho|V^{H}>                    :       0.17593866
[find] one-electron contribution      :       2.07078063 (Ha),       4.14156126 (Ry)
[find] hartree contribution           :       0.08796933
[find] xc contribution                :      -4.33445471
[find] ewald contribution             :      -4.53967598
[find] PAW contribution               :       0.00000000
[find] smearing (-TS)                 :      -0.01324788
[find] SCF correction                 :       0.00977857
[find] Total energy                   :      -6.71885004 (Ha),     -13.43770008 (Ry)
[find] 
[find] band gap (eV)                  :       0.00433486
[find] Efermi                         :       0.51254919
[find] 
[~DFT_ground_state] local op. applied: 112
[~DFT_ground_state] evp. work count: 44.973958
[~DFT_ground_state] number of iterative solver steps: 13
